{
    "version": "0.2",
    "ignorePaths": [],
    "dictionaryDefinitions": [],
    "dictionaries": [],
    "words": [
        "timeslots",
        "connexion",
        "flac",
        "Gunicorn",
        "gunicorn",
        "ENDC",
        "datepart",
        "levelno"
    ],
    "ignoreWords": [],
    "import": []
}